\relax 
\@writefile{toc}{\contentsline {section}{\numberline {1}Questions from Paul Eller's Practice Sessions with Bill Gropp}{1}}
\@writefile{toc}{\contentsline {subsection}{\numberline {1.1}Chapter 1}{1}}
\@writefile{toc}{\contentsline {subsection}{\numberline {1.2}Chapter 2}{1}}
\@writefile{toc}{\contentsline {subsection}{\numberline {1.3}Chapter 3}{2}}
\@writefile{toc}{\contentsline {subsection}{\numberline {1.4}Chapter 4}{3}}
\@writefile{toc}{\contentsline {subsection}{\numberline {1.5}Chapter 5}{4}}
\@writefile{toc}{\contentsline {subsection}{\numberline {1.6}Chapter 7}{5}}
\@writefile{toc}{\contentsline {subsection}{\numberline {1.7}Chapter 9}{6}}
\@writefile{toc}{\contentsline {subsection}{\numberline {1.8}Chapter 11/PDEs}{7}}
\@writefile{toc}{\contentsline {subsection}{\numberline {1.9}Final Practice Session Questions}{9}}
\@writefile{toc}{\contentsline {section}{\numberline {2}Matthew's Qual Questions}{10}}
\@writefile{toc}{\contentsline {subsection}{\numberline {2.1}Section 1}{10}}
\@writefile{toc}{\contentsline {subsection}{\numberline {2.2}Section 2}{11}}
\@writefile{toc}{\contentsline {subsection}{\numberline {2.3}Section 3}{13}}
\@writefile{toc}{\contentsline {subsection}{\numberline {2.4}Section 4}{14}}
\@writefile{toc}{\contentsline {subsection}{\numberline {2.5}Section 5}{15}}
\@writefile{toc}{\contentsline {subsection}{\numberline {2.6}Section 6}{16}}
\@writefile{toc}{\contentsline {section}{\numberline {3}Practice Questions 1}{17}}
\@writefile{toc}{\contentsline {subsection}{\numberline {3.1}Section 1}{17}}
\@writefile{toc}{\contentsline {subsection}{\numberline {3.2}Section 2}{18}}
\@writefile{toc}{\contentsline {subsection}{\numberline {3.3}Section 3}{19}}
\@writefile{toc}{\contentsline {subsection}{\numberline {3.4}Section 4}{21}}
\@writefile{toc}{\contentsline {subsection}{\numberline {3.5}Section 5}{22}}
\@writefile{toc}{\contentsline {subsection}{\numberline {3.6}Section 6}{22}}
\@writefile{toc}{\contentsline {section}{\numberline {4}Practice Questions 2}{22}}
\@writefile{toc}{\contentsline {subsection}{\numberline {4.1}Section 1}{22}}
\@writefile{toc}{\contentsline {subsection}{\numberline {4.2}Section 2}{23}}
\@writefile{toc}{\contentsline {subsection}{\numberline {4.3}Section 3}{26}}
\@writefile{toc}{\contentsline {subsection}{\numberline {4.4}Section 4}{27}}
\@writefile{toc}{\contentsline {section}{\numberline {5}Chapter 1 Assorted Questions}{28}}
\@writefile{toc}{\contentsline {section}{\numberline {6}Chapter 2 Assorted Questions}{37}}
\@writefile{toc}{\contentsline {section}{\numberline {7}Chapter 3 - Assorted Questions}{48}}
\@writefile{toc}{\contentsline {section}{\numberline {8}Chapter 4 - Assorted Questions}{52}}
\@writefile{toc}{\contentsline {section}{\numberline {9}Chapter 5 - Assorted Questions}{59}}
\@writefile{toc}{\contentsline {section}{\numberline {10}Chapter 6 Assorted Questions}{63}}
\@writefile{toc}{\contentsline {section}{\numberline {11}Chapter 7 Assorted Questions}{66}}
\@writefile{toc}{\contentsline {section}{\numberline {12}Chapter 8 Assorted Questions}{68}}
\@writefile{toc}{\contentsline {section}{\numberline {13}Chapter 9 Assorted Questions}{70}}
\@writefile{toc}{\contentsline {section}{\numberline {14}Chapter 11 - Assorted Questions}{72}}
\@writefile{toc}{\contentsline {section}{\numberline {15}Finite Difference Methods - Assorted Questions}{73}}
\@writefile{toc}{\contentsline {section}{\numberline {16}Finite Element Methods - Assorted Questions}{74}}
\@writefile{toc}{\contentsline {section}{\numberline {17}Additional Assorted Questions}{76}}
